Exercise: 데이터 정제와 가공, 시각화
…
환자별 slope 를 추정하기 위해서는 반복문을 사용해서 각 환자별로 선형
회귀 모델을 적용해야 합니다. 이와 같이 반복문이 필요할 때 purrr 패키지를
사용하면 편리합니다(purrr 패키지는 tidyverse 패키지에 포함되어
있습니다)

purrr 패키지의 nest 함수를 이용해 list column 을 생성합니다. 새로
생성된 list column 의 이름은 data 입니다.

df_data = alsfrs_rev_slope_3mo %>%
  group_by(SubjectID) %>%
  nest() 
df_data

## # A tibble: 2,386 × 2
## # Groups:   SubjectID [2,386]
##    SubjectID data             
##    <chr>     <list>           
##  1 10059     <tibble [4 × 19]>
##  2 100933    <tibble [2 × 19]>
##  3 100981    <tibble [4 × 19]>
##  4 101645    <tibble [3 × 19]>
##  5 102107    <tibble [5 × 19]>
##  6 10244     <tibble [3 × 19]>
##  7 102814    <tibble [2 × 19]>
##  8 103126    <tibble [2 × 19]>
##  9 103350    <tibble [3 × 19]>
## 10 103471    <tibble [4 × 19]>
## # … with 2,376 more rows
## # ℹ Use `print(n = ...)` to see more rows

purrr 패키지의 map 함수를 이용하여 data 리스트에 lm 함수를 적용하여
model 을 생성합니다. map 함수는 list 타입의 데이터를 반환합니다.

df_model = df_data %>%
  mutate(model = map(data, ~lm(ALSFRS_R_Total ~ feature_delta, 
                               data = .x))) 
df_model

## # A tibble: 2,386 × 3
## # Groups:   SubjectID [2,386]
##    SubjectID data              model 
##    <chr>     <list>            <list>
##  1 10059     <tibble [4 × 19]> <lm>  
##  2 100933    <tibble [2 × 19]> <lm>  
##  3 100981    <tibble [4 × 19]> <lm>  
##  4 101645    <tibble [3 × 19]> <lm>  
##  5 102107    <tibble [5 × 19]> <lm>  
##  6 10244     <tibble [3 × 19]> <lm>  
##  7 102814    <tibble [2 × 19]> <lm>  
##  8 103126    <tibble [2 × 19]> <lm>  
##  9 103350    <tibble [3 × 19]> <lm>  
## 10 103471    <tibble [4 × 19]> <lm>  
## # … with 2,376 more rows
## # ℹ Use `print(n = ...)` to see more rows

purrr 패키지의 map 함수를 이용해 model 에 tidy 함수(broom 패키지)를
적용하여 model 의 결과를 새로운 변수에 담습니다.

df_stat = df_model %>%
  mutate(stat = map(model, ~tidy(.x))) 
df_stat

## # A tibble: 2,386 × 4
## # Groups:   SubjectID [2,386]
##    SubjectID data              model  stat            
##    <chr>     <list>            <list> <list>          
##  1 10059     <tibble [4 × 19]> <lm>   <tibble [2 × 5]>
##  2 100933    <tibble [2 × 19]> <lm>   <tibble [2 × 5]>
##  3 100981    <tibble [4 × 19]> <lm>   <tibble [2 × 5]>
##  4 101645    <tibble [3 × 19]> <lm>   <tibble [2 × 5]>
##  5 102107    <tibble [5 × 19]> <lm>   <tibble [2 × 5]>
##  6 10244     <tibble [3 × 19]> <lm>   <tibble [2 × 5]>
##  7 102814    <tibble [2 × 19]> <lm>   <tibble [2 × 5]>
##  8 103126    <tibble [2 × 19]> <lm>   <tibble [2 × 5]>
##  9 103350    <tibble [3 × 19]> <lm>   <tibble [2 × 5]>
## 10 103471    <tibble [4 × 19]> <lm>   <tibble [2 × 5]>
## # … with 2,376 more rows
## # ℹ Use `print(n = ...)` to see more rows

purrr 패키지의 map 함수를 이용해 stat 변수에 unnest 함수를 적용하여
모델의 추정치 를 추출합니다.

df_est = df_stat %>%
  unnest(stat) 
df_est

## # A tibble: 4,772 × 8
## # Groups:   SubjectID [2,386]
##    SubjectID data              model  term     estim…¹ std.e…² stati…³   p.value
##    <chr>     <list>            <list> <chr>      <dbl>   <dbl>   <dbl>     <dbl>
##  1 10059     <tibble [4 × 19]> <lm>   (Interc…   40.9    0.696   58.7    2.90e-4
##  2 10059     <tibble [4 × 19]> <lm>   feature…   -2.20   0.404   -5.44   3.21e-2
##  3 100933    <tibble [2 × 19]> <lm>   (Interc…   32    NaN      NaN    NaN      
##  4 100933    <tibble [2 × 19]> <lm>   feature…    2.30 NaN      NaN    NaN      
##  5 100981    <tibble [4 × 19]> <lm>   (Interc…   45      0      Inf      0      
##  6 100981    <tibble [4 × 19]> <lm>   feature…    0      0      NaN    NaN      
##  7 101645    <tibble [3 × 19]> <lm>   (Interc…   39.7    1.37    29.0    2.19e-2
##  8 101645    <tibble [3 × 19]> <lm>   feature…   -1.62   0.791   -2.05   2.89e-1
##  9 102107    <tibble [5 × 19]> <lm>   (Interc…   38.3    0.761   50.4    1.72e-5
## 10 102107    <tibble [5 × 19]> <lm>   feature…   -2.57   0.394   -6.52   7.32e-3
## # … with 4,762 more rows, and abbreviated variable names ¹​estimate, ²​std.error,
## #   ³​statistic
## # ℹ Use `print(n = ...)` to see more rows

마지막으로 slope 추정치를 추출하여 alsfrs_rev_slope 데이터셋을
생성합니다.

alsfrs_rev_slope_3mo_total = df_est %>%
  filter(term == "feature_delta") %>%
  select(SubjectID, estimate) %>%
  rename(slope_total = estimate)
alsfrs_rev_slope_3mo_total

## # A tibble: 2,386 × 2
## # Groups:   SubjectID [2,386]
##    SubjectID slope_total
##    <chr>           <dbl>
##  1 10059          -2.20 
##  2 100933          2.30 
##  3 100981          0    
##  4 101645         -1.62 
##  5 102107         -2.57 
##  6 10244          -1.96 
##  7 102814         -1.86 
##  8 103126         -1.45 
##  9 103350          0.446
## 10 103471         -1.14 
## # … with 2,376 more rows
## # ℹ Use `print(n = ...)` to see more rows
위와 같은 과정으로 이번에는 bulbar slope 를 추정합니다.

alsfrs_rev_slope_3mo_bulbar = alsfrs_rev_slope_3mo %>%
  group_by(SubjectID) %>%
  nest() %>%
  mutate(model = map(data, ~lm(bulbar ~ feature_delta, 
                               data = .x))) %>%
  mutate(stat = map(model, ~tidy(.x))) %>%
  unnest(stat) %>%
  filter(term == "feature_delta") %>%
  select(SubjectID, estimate) %>%
  rename(slope_bulbar = estimate)
alsfrs_rev_slope_3mo_bulbar

## # A tibble: 2,386 × 2
## # Groups:   SubjectID [2,386]
##    SubjectID slope_bulbar
##    <chr>            <dbl>
##  1 10059         0       
##  2 100933        5.75e- 1
##  3 100981        0       
##  4 101645       -1.94e- 1
##  5 102107        8.73e-16
##  6 10244        -1.43e-15
##  7 102814       -6.21e- 1
##  8 103126        1.21e-15
##  9 103350        3.77e- 1
## 10 103471        0       
## # … with 2,376 more rows
## # ℹ Use `print(n = ...)` to see more rows
…
# Estimate slope_motor
alsfrs_rev_slope_3mo_motor = alsfrs_rev_slope_3mo %>%
  group_by(SubjectID) %>%
  nest() %>%
  mutate(model = map(data, ~lm(motor ~ feature_delta, 
                               data = .x))) %>%
  mutate(stat = map(model, ~tidy(.x))) %>%
  unnest(stat) %>%
  filter(term == "feature_delta") %>%
  select(SubjectID, estimate) %>%
  rename(slope_motor = estimate)
alsfrs_rev_slope_3mo_motor

## # A tibble: 2,386 × 2
## # Groups:   SubjectID [2,386]
##    SubjectID slope_motor
##    <chr>           <dbl>
##  1 10059          -2.20 
##  2 100933          0.575
##  3 100981          0    
##  4 101645         -0.540
##  5 102107         -2.57 
##  6 10244          -1.96 
##  7 102814         -0.621
##  8 103126         -1.45 
##  9 103350         -0.617
## 10 103471         -1.14 
## # … with 2,376 more rows
## # ℹ Use `print(n = ...)` to see more rows
…
# Estimate slope_respiratory
alsfrs_rev_slope_3mo_resp = alsfrs_rev_slope_3mo %>%
  group_by(SubjectID) %>%
  nest() %>%
  mutate(model = map(data, ~lm(respiratory ~ feature_delta, 
                               data = .x))) %>%
  mutate(stat = map(model, ~tidy(.x))) %>%
  unnest(stat) %>%
  filter(term == "feature_delta") %>%
  select(SubjectID, estimate) %>%
  rename(slope_resp = estimate)
alsfrs_rev_slope_3mo_resp

## # A tibble: 2,386 × 2
## # Groups:   SubjectID [2,386]
##    SubjectID slope_resp
##    <chr>          <dbl>
##  1 10059       0       
##  2 100933      1.15e+ 0
##  3 100981      0       
##  4 101645     -8.86e- 1
##  5 102107      0       
##  6 10244      -1.43e-15
##  7 102814     -6.21e- 1
##  8 103126      1.21e-15
##  9 103350      6.86e- 1
## 10 103471      0       
## # … with 2,376 more rows
## # ℹ Use `print(n = ...)` to see more rows

위에서 계산한 평균치와 추정한 slope 데이터를 모아 초기 3개월
meta-features 데이터셋을 완성합니다.

alsfrs_rev_3mo = alsfrs_rev_mean_3mo %>%
  left_join(alsfrs_rev_slope_3mo_total, by = "SubjectID") %>%
  left_join(alsfrs_rev_slope_3mo_bulbar, by = "SubjectID") %>%
  left_join(alsfrs_rev_slope_3mo_motor, by = "SubjectID") %>%
  left_join(alsfrs_rev_slope_3mo_resp, by = "SubjectID")
alsfrs_rev_3mo

## # A tibble: 3,273 × 19
##    SubjectID Gastrostomy ALSFR…¹ Q1_Sp…² Q2_Sa…³ Q3_Sw…⁴ Q4_Ha…⁵ Q5_Cu…⁶ Q6_Dr…⁷
##    <chr>     <lgl>         <dbl>   <dbl>   <dbl>   <dbl>   <dbl>   <dbl>   <dbl>
##  1 100256    FALSE          32      4        4         4    2.5     1.5      1  
##  2 100272    TRUE           38      3.5      4         3    3.5     3.5      1.5
##  3 10059     FALSE          37.8    4        4         4    3       3.75     2  
##  4 100603    FALSE          33.5    3.5      2.5       4    1.5     1.5      1  
##  5 100933    FALSE          34      1.5      3         1    2       3        2.5
##  6 100981    FALSE          45      4        4         4    3       3        3  
##  7 101247    TRUE           33      3        4         3    2       2        3  
##  8 101315    TRUE           37      3        4         3    4       4        2  
##  9 10136     TRUE           42      2        4         4    3       4        4  
## 10 101645    FALSE          38      3.33     4         4    3.67    3.33     3  
## # … with 3,263 more rows, 10 more variables: Q7_Turning_in_Bed <dbl>,
## #   Q8_Walking <dbl>, Q9_Climbing_Stairs <dbl>, R1_Dyspnea <dbl>,
## #   R2_Orthopnea <dbl>, R3_Respiratory_Insufficiency <dbl>, slope_total <dbl>,
## #   slope_bulbar <dbl>, slope_motor <dbl>, slope_resp <dbl>, and abbreviated
## #   variable names ¹​ALSFRS_Total, ²​Q1_Speech, ³​Q2_Salivation, ⁴​Q3_Swallowing,
## #   ⁵​Q4_Handwriting, ⁶​Q5_Cutting, ⁷​Q6_Dressing_and_Hygiene
## # ℹ Use `print(n = ...)` to see more rows, and `colnames()` to see all variable names
…
# Estimate slope_total 
alsfrs_rev_slope_3to12mo_total = alsfrs_rev_slope_3to12mo %>%
  group_by(SubjectID) %>%
  nest() %>%
  mutate(model = map(data, ~lm(ALSFRS_R_Total ~ feature_delta, 
                               data = .x))) %>%
  mutate(stat = map(model, ~tidy(.x))) %>%
  unnest(stat) %>%
  filter(term == "feature_delta") %>%
  select(SubjectID, estimate) %>%
  rename(slope_total = estimate)
alsfrs_rev_slope_3to12mo_total 

## # A tibble: 1,734 × 2
## # Groups:   SubjectID [1,734]
##    SubjectID slope_total
##    <chr>           <dbl>
##  1 100603         -2.57 
##  2 100933         -1.18 
##  3 100981          0    
##  4 10244           0.360
##  5 102814         -0.775
##  6 103410         -1.12 
##  7 103471         -1.11 
##  8 103569         -1.58 
##  9 104179         -0.617
## 10 104653         -1.91 
## # … with 1,724 more rows
## # ℹ Use `print(n = ...)` to see more rows
…
fvc 초기 3개월 평균치와 slope 를 ALSFRS_rev 에 대해서 했던 것과 같은
방식으로 계산하고 추정합니다.

# Calculate fvc_mean for the first 3 mo 
fvc_3mo_mean = fvc %>% 
  filter(feature_delta <= 3) %>% 
  group_by(SubjectID) %>%
  summarise(FVC = mean(FVC))
fvc_3mo_mean

## # A tibble: 7,217 × 2
##    SubjectID   FVC
##    <chr>     <dbl>
##  1 100256     78  
##  2 100272    120. 
##  3 10059      82.6
##  4 100626     88  
##  5 100791     76  
##  6 100806     77.2
##  7 100933     61.5
##  8 100962     64  
##  9 101154     80.3
## 10 101247     81  
## # … with 7,207 more rows
## # ℹ Use `print(n = ...)` to see more rows
…
linear regression 을 적용하여 slope 를 추정합니다.

fvc_3mo_slope = fvc_3mo %>%
  group_by(SubjectID) %>%
  nest() %>%
  mutate(model = map(data, ~lm(FVC ~ feature_delta, 
                               data = .x))) %>%
  mutate(stat = map(model, ~tidy(.x))) %>%
  unnest(stat) %>% 
  filter(term == "feature_delta") %>%
  select(SubjectID, estimate) %>% 
  rename(FVC_3mo_slope = estimate)
fvc_3mo_slope

## # A tibble: 4,362 × 2
## # Groups:   SubjectID [4,362]
##    SubjectID FVC_3mo_slope
##    <chr>             <dbl>
##  1 329               1.47 
##  2 649              -2.51 
##  3 708              -1.88 
##  4 902              -1.27 
##  5 1234              0.277
##  6 2540            -16.4  
##  7 2956              2.14 
##  8 3085              0.125
##  9 3551              0.474
## 10 3809             -6.58 
## # … with 4,352 more rows
## # ℹ Use `print(n = ...)` to see more rows

FVC 3mo 평균치와 slope 데이터셋을 병합하기(Merge fvc_3mo_mean and
fvc_3mo_slope)

fvc_3mo = fvc_3mo_mean %>%
  left_join(fvc_3mo_slope, by = "SubjectID")
fvc_3mo

## # A tibble: 7,217 × 3
##    SubjectID   FVC FVC_3mo_slope
##    <chr>     <dbl>         <dbl>
##  1 100256     78          NA    
##  2 100272    120.         NA    
##  3 10059      82.6        -4.65 
##  4 100626     88           0.219
##  5 100791     76          NA    
##  6 100806     77.2        -4.98 
##  7 100933     61.5        -0.575
##  8 100962     64          -1.75 
##  9 101154     80.3        -1.51 
## 10 101247     81          NA    
## # … with 7,207 more rows
## # ℹ Use `print(n = ...)` to see more rows
…
초기 3개월 BMI 평균치를 구합니다.

# Calculate mean BMI for the first 3 mo
bmi_3mo = vitals %>%
  filter(feature_name  == "BMI") %>%
  filter(feature_delta <= 3)
bmi_3mo_wide = spread(bmi_3mo, key = feature_name, value = feature_value)
bmi_3mo_mean = bmi_3mo_wide %>%
  group_by(SubjectID) %>%
  summarise(BMI = mean(BMI)*10000)
bmi_3mo_mean

## # A tibble: 4,549 × 2
##    SubjectID   BMI
##    <chr>     <dbl>
##  1 10027      23.7
##  2 100272     24.1
##  3 100603     21.8
##  4 100626     34.5
##  5 100806     26.7
##  6 100933     25.3
##  7 100962     24.1
##  8 100981     24.2
##  9 10118      18.6
## 10 101247     23.6
## # … with 4,539 more rows
## # ℹ Use `print(n = ...)` to see more rows
…
# Calculate mean vital sign over the first 3 mo  
vitalsign_3mo_mean = vitalsign_3mo_wide %>%
  group_by(SubjectID) %>% 
  summarise(dbp = mean(dbp), 
            sbp = mean(sbp), 
            hr = mean(hr), 
            rr = mean(rr),
            temp = mean(temp))
vitalsign_3mo_mean

## # A tibble: 7,024 × 6
##    SubjectID   dbp   sbp    hr    rr  temp
##    <chr>     <dbl> <dbl> <dbl> <dbl> <dbl>
##  1 100256     82    116   79.2  12.4  36.4
##  2 10027      70    120   80    NA    NA  
##  3 100272     80.3  128.  87.7  20.7  36.5
##  4 100603     82    130.  78.7  20    36.6
##  5 100626    108.   170   80    12.5  NA  
##  6 100806    100    162.  63.2  15    NA  
##  7 100933     83.4  121.  85.4  19.4  36.7
##  8 100962     76.7  132.  83.3  22    NA  
##  9 100981     80.3  113   66.7  NA    NA  
## 10 101154     73.5  118.  64.5  14    NA  
## # … with 7,014 more rows
## # ℹ Use `print(n = ...)` to see more rows
…
초기 3개월 평균치를 구합니다.

wide format 으로 변환 후에 평균치를 구할 수도 있으나, 여기서는 purrr
패키지의 nest 와 map 함수를 사용해봅시다.

# Calculate mean 
lab_data = lab_subset %>%
  filter(feature_delta <= 3) %>%
  group_by(SubjectID, feature_name) %>%
  nest() 
lab_data

## # A tibble: 34,064 × 3
## # Groups:   SubjectID, feature_name [34,064]
##    SubjectID feature_name       data            
##    <chr>     <fct>              <list>          
##  1 329       CK                 <tibble [3 × 2]>
##  2 329       Uric Acid          <tibble [3 × 2]>
##  3 329       C-Reactive Protein <tibble [2 × 2]>
##  4 329       Creatinine         <tibble [3 × 2]>
##  5 917600    CK                 <tibble [1 × 2]>
##  6 917600    Creatinine         <tibble [1 × 2]>
##  7 604171    C-Reactive Protein <tibble [2 × 2]>
##  8 604171    CK                 <tibble [3 × 2]>
##  9 604171    Creatinine         <tibble [3 × 2]>
## 10 604171    Uric Acid          <tibble [3 × 2]>
## # … with 34,054 more rows
## # ℹ Use `print(n = ...)` to see more rows

lab_3mo_mean = lab_data %>%
  mutate(mean = map_dbl(data, ~mean(.x$feature_value))) %>%
  select(-data)
lab_3mo_mean

## # A tibble: 34,064 × 3
## # Groups:   SubjectID, feature_name [34,064]
##    SubjectID feature_name        mean
##    <chr>     <fct>              <dbl>
##  1 329       CK                 179. 
##  2 329       Uric Acid          218. 
##  3 329       C-Reactive Protein   1  
##  4 329       Creatinine          58.9
##  5 917600    CK                  65  
##  6 917600    Creatinine          44.2
##  7 604171    C-Reactive Protein   1  
##  8 604171    CK                 378. 
##  9 604171    Creatinine          88.4
## 10 604171    Uric Acid          337. 
## # … with 34,054 more rows
## # ℹ Use `print(n = ...)` to see more rows
…
